vivado_2023/SQISign_hardware_2023.sim/sim_1/behav/xsim/simulate.log
Time resolution is 1 ps
==== STARTING fp2_to_squared_theta TESTBENCH ====
[T1] A=028c1d62a684e5214897dc181616f99ab77e91d8930339fccb96c13ea7688ef8, B=028349ccbb96e2e4bbf3011d0b0f648be034aa0524bc0ce27dbb31bd09791ee1, D1_re=0289f51632897181db9277903d1f75c6cb8926b144723d07ed7c7bce24a8bb37
[T1] A=028c1d62a684e5214897dc181616f99ab77e91d8930339fccb96c13ea7688ef8, B=028349ccbb96e2e4bbf3011d0b0f648be034aa0524bc0ce27dbb31bd09791ee1, D1_im=037679688a07506477c545ba03ada159cf2a295e4b05dc970958aad06cc6ab0b
CONTROL x_im 1
CONTROL x_re 1
[T1] A=0194e9f8f1dd2235edad64d8ad2879185e8c6c70b59cac2c25115cbc2ca64a8a, B=015b4fb01397c47fd6324a1751b7da1cf35d41753bb42647288107132a5a6250, D2_re=0432cb0d965bbfcd9f8edda44298628a8290868e9ad7d7a895cbf7a6b9c4ca7a
[T1] A=0194e9f8f1dd2235edad64d8ad2879185e8c6c70b59cac2c25115cbc2ca64a8a, B=015b4fb01397c47fd6324a1751b7da1cf35d41753bb42647288107132a5a6250, D2_im=04c5ce25d84c8da5b1d8716ae9f4d806f7a3d5d0dc675bf04e6578b4be070b79
CONTROL y_im 1
CONTROL y_re 1
[T1] A=01c0ab017a5bb770463f51ec1b32dbfccd9ddcbd9f63f689d249645ef205b0ac, B=0452dfdbc84a1bd27a44c1e9a648ac6be0322fba54a045b02807582dbd801c3a, D3_re=020b2b2f8a2e2bd59ba6de08a9ffb14955ca38cd9d4136e12a3f0ab00ded8518
[T1] A=01c0ab017a5bb770463f51ec1b32dbfccd9ddcbd9f63f689d249645ef205b0ac, B=0452dfdbc84a1bd27a44c1e9a648ac6be0322fba54a045b02807582dbd801c3a, D3_im=00a9c98a870fe80b51285a1f49eff8c06fd9b7b9f8d58c4391f0b8d6d61d1f70
CONTROL z_im 1
CONTROL z_re 1
[T1] A=0325f3953a37323d4ba9b9d4f33f761511fbb4e58be03de7aa9cbeae13283bd7, B=03f93063d1e0f03d6af566080ecaa4db91778ce5ac89215d95e109b33fd81ad1, D4_re=01a3b6a08d15c6e4060e6a42eb240c232e472fdc85ed5a922ae042c1a52da78e
[T1] A=0325f3953a37323d4ba9b9d4f33f761511fbb4e58be03de7aa9cbeae13283bd7, B=03f93063d1e0f03d6af566080ecaa4db91778ce5ac89215d95e109b33fd81ad1, D4_im=04a16e689fffc24bcf5fd68b1c886447ba5d34523fbd4698f92b2f420a9d2485
CONTROL t_im 1
CONTROL t_re 1
[T1] A=028c1d62a684e5214897dc181616f99ab77e91d8930339fccb96c13ea7688ef8, B=028349ccbb96e2e4bbf3011d0b0f648be034aa0524bc0ce27dbb31bd09791ee1, D1_re=035e46e84c8a5480e721e84b79433b51107f8ddd1706dbcebe53b081b9c6ccc8
[T1] A=028c1d62a684e5214897dc181616f99ab77e91d8930339fccb96c13ea7688ef8, B=028349ccbb96e2e4bbf3011d0b0f648be034aa0524bc0ce27dbb31bd09791ee1, D1_im=04234c60218bac903647532d239d89da5d80a45d19393bc7a07319eaf7b06a36
CONTROL x_im 1
CONTROL x_re 1
[T1] A=0194e9f8f1dd2235edad64d8ad2879185e8c6c70b59cac2c25115cbc2ca64a8a, B=015b4fb01397c47fd6324a1751b7da1cf35d41753bb42647288107132a5a6250, D2_re=074c3905cfd92408d581907f6e1116c80cc7a62843606ef3c3e9eae5e7fccd81
[T1] A=0194e9f8f1dd2235edad64d8ad2879185e8c6c70b59cac2c25115cbc2ca64a8a, B=015b4fb01397c47fd6324a1751b7da1cf35d41753bb42647288107132a5a6250, D2_im=0737c877929d244ff8744e92d611a8611af6fb1c00a228dffd68c3c179d77de9
CONTROL y_im 1
CONTROL y_re 1
[T1] A=01c0ab017a5bb770463f51ec1b32dbfccd9ddcbd9f63f689d249645ef205b0ac, B=0452dfdbc84a1bd27a44c1e9a648ac6be0322fba54a045b02807582dbd801c3a, D3_re=010083481e026f0da3b757b44efbc078085cbc88d0a9b8e81415159e5390737b
[T1] A=01c0ab017a5bb770463f51ec1b32dbfccd9ddcbd9f63f689d249645ef205b0ac, B=0452dfdbc84a1bd27a44c1e9a648ac6be0322fba54a045b02807582dbd801c3a, D3_im=038cdc79d36c57e1f536f1d856accfca0912cc44a813960e8a3b49b9363be24a
CONTROL z_im 1
CONTROL z_re 1
[T1] A=0325f3953a37323d4ba9b9d4f33f761511fbb4e58be03de7aa9cbeae13283bd7, B=03f93063d1e0f03d6af566080ecaa4db91778ce5ac89215d95e109b33fd81ad1, D4_re=031b2223ca09edec00b2780aebc861145bcdb80a72082791c2a77ac2b97c8896
[T1] A=0325f3953a37323d4ba9b9d4f33f761511fbb4e58be03de7aa9cbeae13283bd7, B=03f93063d1e0f03d6af566080ecaa4db91778ce5ac89215d95e109b33fd81ad1, D4_im=04487ebb60bd6fcefc0555bb30e0d15285f001eb72d2b4352ef3d6eb10d773be
CONTROL t_im 1
CONTROL t_re 1
[PRECOMP1] A=028c1d62a684e5214897dc181616f99ab77e91d8930339fccb96c13ea7688ef8, B=028349ccbb96e2e4bbf3011d0b0f648be034aa0524bc0ce27dbb31bd09791ee1, D1_re=04c89fe7db5a25b8ca4f68f57be842608f7dd5554041d0965dece2c4f18b4cf0
[PRECOMP1] A=028c1d62a684e5214897dc181616f99ab77e91d8930339fccb96c13ea7688ef8, B=028349ccbb96e2e4bbf3011d0b0f648be034aa0524bc0ce27dbb31bd09791ee1, D1_im=04b09b4054129a26f363482f2d37e41547814acf6e7e0222d0d0139037339c6f
CONTROL x_im 1
CONTROL x_re 1
[PRECOMP2] A=0194e9f8f1dd2235edad64d8ad2879185e8c6c70b59cac2c25115cbc2ca64a8a, B=015b4fb01397c47fd6324a1751b7da1cf35d41753bb42647288107132a5a6250, D2_re=033b2a47feefd122926cfce64bd9c0e29d777f328f7759fde112b493fda704c5
[PRECOMP2] A=0194e9f8f1dd2235edad64d8ad2879185e8c6c70b59cac2c25115cbc2ca64a8a, B=015b4fb01397c47fd6324a1751b7da1cf35d41753bb42647288107132a5a6250, D2_im=01f590e1200090e8da2dc975cb94d4b77f57609a4c104e44c76cbe4f5a8c6bc7
CONTROL y_im 1
CONTROL y_re 1
[PRECOMP3] A=01c0ab017a5bb770463f51ec1b32dbfccd9ddcbd9f63f689d249645ef205b0ac, B=0452dfdbc84a1bd27a44c1e9a648ac6be0322fba54a045b02807582dbd801c3a, D3_re=035ef79c20567420cfb80834292ecab76eea19a96e794401905d6e36b388f503
[PRECOMP3] A=01c0ab017a5bb770463f51ec1b32dbfccd9ddcbd9f63f689d249645ef205b0ac, B=0452dfdbc84a1bd27a44c1e9a648ac6be0322fba54a045b02807582dbd801c3a, D3_im=039c766a618856c8e8077a38e2c97241bd77017ca8c2ad723d7e7a2e61a9e088
CONTROL z_im 1
CONTROL z_re 1
[PRECOMP4] A=0325f3953a37323d4ba9b9d4f33f761511fbb4e58be03de7aa9cbeae13283bd7, B=03f93063d1e0f03d6af566080ecaa4db91778ce5ac89215d95e109b33fd81ad1, D4_re=04164713aaa922a9f42bef9d60ae4375eeb22cba08de480692d229dadb69392f
[PRECOMP4] A=0325f3953a37323d4ba9b9d4f33f761511fbb4e58be03de7aa9cbeae13283bd7, B=03f93063d1e0f03d6af566080ecaa4db91778ce5ac89215d95e109b33fd81ad1, D4_im=044452b58ed5943dd9539f8f1d58da7f39fa9e6f45cc02b81c304c479f28a69a
CONTROL t_im 1
CONTROL t_re 1
[NULL1] A=028c1d62a684e5214897dc181616f99ab77e91d8930339fccb96c13ea7688ef8, B=028349ccbb96e2e4bbf3011d0b0f648be034aa0524bc0ce27dbb31bd09791ee1, D1_re=07f5e40dc4e68677e78c37e5d0ef3a3ff27517bf836767fa30882b23081986da
[NULL1] A=028c1d62a684e5214897dc181616f99ab77e91d8930339fccb96c13ea7688ef8, B=028349ccbb96e2e4bbf3011d0b0f648be034aa0524bc0ce27dbb31bd09791ee1, D1_im=04bf432f47bb9c1dc4f45ac0434d9c5bc0c993f1be31586ca67eed774e001fc1
CONTROL x_im 1
CONTROL x_re 1
[NULL2] A=0194e9f8f1dd2235edad64d8ad2879185e8c6c70b59cac2c25115cbc2ca64a8a, B=015b4fb01397c47fd6324a1751b7da1cf35d41753bb42647288107132a5a6250, D2_re=044953b1b6ac31389018fca0240e5e5165b2dd92d2022ad667d2df626fea3edb
[NULL2] A=0194e9f8f1dd2235edad64d8ad2879185e8c6c70b59cac2c25115cbc2ca64a8a, B=015b4fb01397c47fd6324a1751b7da1cf35d41753bb42647288107132a5a6250, D2_im=020ad78b1f445e430a32a235ab32fea95b3a755be033d69e4450c654e3522eca
CONTROL y_im 1
CONTROL y_re 1
[NULL3] A=01c0ab017a5bb770463f51ec1b32dbfccd9ddcbd9f63f689d249645ef205b0ac, B=0452dfdbc84a1bd27a44c1e9a648ac6be0322fba54a045b02807582dbd801c3a, D3_re=030b66ae2ee758e25fc44842bd351de5373c8af894b84fe9ea28faffea352a74
[NULL3] A=01c0ab017a5bb770463f51ec1b32dbfccd9ddcbd9f63f689d249645ef205b0ac, B=0452dfdbc84a1bd27a44c1e9a648ac6be0322fba54a045b02807582dbd801c3a, D3_im=03fdb0ef66ffc610423e2730430902d9d1e65419e113f817f321608b4c5b117a
CONTROL z_im 1
CONTROL z_re 1
[NULL4] A=0325f3953a37323d4ba9b9d4f33f761511fbb4e58be03de7aa9cbeae13283bd7, B=03f93063d1e0f03d6af566080ecaa4db91778ce5ac89215d95e109b33fd81ad1, D4_re=02dab4c2a206d42647312dcdb50f6cd46622b7719d3822cc62e9681a2029b683
[NULL4] A=0325f3953a37323d4ba9b9d4f33f761511fbb4e58be03de7aa9cbeae13283bd7, B=03f93063d1e0f03d6af566080ecaa4db91778ce5ac89215d95e109b33fd81ad1, D4_im=00bb1ef4c4a9e359279a578936142e2e62333b76a6212c1286ed22226854a2a6
CONTROL t_im 1
CONTROL t_re 1
==== FINISHED fp2_to_squared_theta TESTBENCH ====
$stop called at time : 1261 ns : File "/home/cisechw/SQISign-hardware/src_tb/theta_isogeny_compute_tb.v" Line 286
